<?xml version="1.0" encoding="utf-8"?>
<!-- Generator: Adobe Illustrator 16.0.0, SVG Export Plug-In . SVG Version: 6.00 Build 0)  -->
<!DOCTYPE svg PUBLIC "-//W3C//DTD SVG 1.1//EN" "http://www.w3.org/Graphics/SVG/1.1/DTD/svg11.dtd">
<svg version="1.1" id="Layer_1" xmlns="http://www.w3.org/2000/svg" xmlns:xlink="http://www.w3.org/1999/xlink" x="0px" y="0px"
	 width="444px" height="141.567px" viewBox="0 0 444 141.567" enable-background="new 0 0 444 141.567" xml:space="preserve">
<g>
	<g>
		<circle fill="#FFFFFF" cx="81.08" cy="79.413" r="38.671"/>
		<path fill="#A4CDE3" d="M109.321,52.988c14.721,21.556,4.263,51.306-20.783,58.85c-14.549,4.383-29.666-0.22-39.396-10.602
			c9.255,13.553,26.54,20.192,43.091,15.207C119.853,108.121,128.747,73.716,109.321,52.988z"/>
		<g>
			<path fill="#3088BD" d="M41.141,91.444c-6.635-22.022,5.884-45.336,27.908-51.97c17.275-5.203,35.836,1.219,46.188,15.98
				c1.447,2.063-1.672,4.249-3.117,2.186c-9.407-13.414-26.275-19.249-41.972-14.52c-20.013,6.028-31.39,27.213-25.361,47.226
				c10.112,33.564,56.752,36.458,70.955,4.407c1.019-2.3,4.501-0.763,3.481,1.542C103.548,131.667,52.257,128.354,41.141,91.444z"/>
			<path fill="#3088BD" d="M115.742,94.753c1.6-3.612,1.604-6.275,3.975-5.551c2.603,0.796,0.716,4.363-0.494,7.094
				C118.205,98.588,114.717,97.063,115.742,94.753z"/>
			<path fill="#3088BD" d="M118.716,83.985c1.555-12.734-3.681-16.791-0.07-17.876c1.006-0.302,2.067,0.267,2.373,1.274
				c1.681,5.582,2.179,11.323,1.478,17.063C122.191,86.946,118.411,86.485,118.716,83.985z"/>
		</g>
	</g>
	<g>
		<path fill="#3088BD" d="M71.825,72.757c-19.226,0-19.5,0.509-19.5-1.362c0-1.88,0.329-1.36,19.5-1.36
			C73.626,70.035,73.628,72.757,71.825,72.757z"/>
		<path fill="#3088BD" d="M63.016,78.497c-6.627,0-8.782-8.464-5.732-8.464c11.809,0,12.843-0.474,12.844,1.36
			C70.134,75.276,66.996,78.497,63.016,78.497z M58.862,72.757c1.305,4.024,7.023,4.006,8.331,0H58.862z"/>
	</g>
	<g>
		<path fill="#3088BD" d="M106.766,72.757c-19.226,0-19.5,0.509-19.5-1.362c0-1.88,0.329-1.36,19.5-1.36
			C108.567,70.035,108.57,72.757,106.766,72.757z"/>
		<path fill="#3088BD" d="M97.957,78.497c-6.627,0-8.782-8.464-5.73-8.464c11.806,0,12.842-0.474,12.843,1.36
			C105.075,75.276,101.935,78.497,97.957,78.497z M93.804,72.757c1.301,4.015,7.02,4.015,8.33,0H93.804z"/>
	</g>
	<path fill="#3088BD" d="M103.709,67.021c-11.755,0-12.845,0.483-12.845-1.362c0-1.849,1.109-1.36,12.845-1.36
		C105.51,64.298,105.513,67.021,103.709,67.021z"/>
	<path fill="#3088BD" d="M68.499,67.021c-11.756,0-12.846,0.483-12.846-1.362c0-1.849,1.111-1.36,12.846-1.36
		C70.298,64.298,70.302,67.021,68.499,67.021z"/>
	<path fill="#3088BD" d="M88.628,99.551c-16.87,0-18.164,0.564-18.164-1.361c0-1.856,0.353-1.362,18.164-1.362
		C90.428,96.828,90.431,99.551,88.628,99.551z"/>
</g>
<g>
	<g>
		<circle fill="#FFFFFF" cx="124.895" cy="69.462" r="38.671"/>
		<path fill="#A4CDE3" d="M161.159,56.014c5.242,25.572-15.907,48.961-41.921,46.235c-15.112-1.583-27.273-11.671-32.232-25.01
			c3.295,16.077,16.668,28.883,33.858,30.685C149.554,110.931,171.059,82.64,161.159,56.014z"/>
		<g>
			<path fill="#3088BD" d="M83.411,65.116c2.402-22.927,22.902-39.54,45.833-37.137c17.944,1.88,32.579,14.98,36.417,32.597
				c0.537,2.463-3.186,3.27-3.721,0.811c-9.108-41.807-70.265-38.585-74.742,4.125c-3.662,34.949,38.284,55.526,63.731,31.501
				c1.833-1.73,4.446,1.039,2.615,2.77C125.355,126.395,79.396,103.425,83.411,65.116z"/>
			<path fill="#3088BD" d="M150.929,97.013c2.877-2.715,3.911-5.17,5.813-3.582c2.092,1.739-1.028,4.301-3.199,6.352
				C151.715,101.506,149.095,98.744,150.929,97.013z"/>
			<path fill="#3088BD" d="M157.837,88.232c6.356-11.142,3.096-16.905,6.847-16.513c1.045,0.109,1.804,1.045,1.695,2.091
				c-0.608,5.797-2.369,11.286-5.234,16.308C159.896,92.307,156.589,90.42,157.837,88.232z"/>
		</g>
	</g>
	<path fill="#3088BD" d="M106.804,55.566c-0.945-0.396-0.777-0.765-1.624-6.522c-0.261-1.781,2.434-2.179,2.695-0.395l0.49,3.342
		c8.931-5.006,15.789,2.976,13.5,4.628c-2.069,1.492-2.311-2.987-6.784-3.55C110.316,52.47,108.484,56.271,106.804,55.566z"/>
	<path fill="#3088BD" d="M146.992,70.188c-1.449-0.608-0.912-4.684-4.835-7.008c-3.894-2.304-6.802,1.103-7.521-1.362
		c-0.815-2.803,9.564-4.7,13.492,4.648l2.441-2.334c1.299-1.243,3.185,0.723,1.882,1.968
		C148.293,70.075,148.079,70.644,146.992,70.188z"/>
	<path fill="#A4CDE3" d="M105.482,73.14l32.896,12.643c0,0-10.885,10.427-19.762,6.77C108.125,88.227,104.323,80.969,105.482,73.14z
		"/>
	<path fill="#3088BD" d="M114.657,92.496c-11.673-4.893-14.223-16.69-9.832-27.164c0.308-0.734,1.174-1.042,1.867-0.689
		c4.511,1.963,35.408,12.547,35.865,13.598C143.21,79.74,133.221,100.282,114.657,92.496z M106.899,67.635
		c-3.326,10.582-0.225,19.541,10.896,23.119c9.411,3.027,17.024-2.506,21.627-11.205C128.294,75.507,111.902,69.537,106.899,67.635z
		 M106.703,64.649c0.018,0.008,0.034,0.017,0.049,0.026C106.741,64.669,106.725,64.659,106.703,64.649z"/>
</g>
<g>
	<g>
		<path fill="#3088BD" d="M212.434,87.817c0,1.291-0.386,2.206-1.158,2.746c-0.771,0.539-1.75,0.861-2.934,0.968
			c-0.611,0.073-1.212,0.09-1.805,0.055c-0.593-0.035-1.131-0.171-1.616-0.403c-0.485-0.234-0.916-0.62-1.292-1.16
			c-0.377-0.538-0.656-1.292-0.835-2.261c0-0.035-0.027-0.18-0.081-0.432c-0.055-0.25-0.098-0.519-0.135-0.807
			c-0.036-0.287-0.081-0.556-0.135-0.809c-0.053-0.25-0.08-0.412-0.08-0.484c-1.939,0.072-3.888,0.108-5.843,0.108
			c-1.958,0-3.958-0.073-6.005-0.214c-0.036,0.179-0.081,0.449-0.135,0.805c-0.053,0.36-0.116,0.728-0.188,1.105
			c-0.073,0.377-0.144,0.753-0.216,1.13c-0.072,0.377-0.126,0.673-0.161,0.891c-0.216,0.788-0.7,1.399-1.454,1.829
			c-0.754,0.432-1.562,0.667-2.424,0.702c-0.861,0.035-1.688-0.125-2.478-0.485c-0.791-0.358-1.346-0.95-1.669-1.776
			c-0.251-0.575-0.351-1.688-0.296-3.34c0.053-1.65,0.233-3.59,0.539-5.816c0.305-2.227,0.743-4.625,1.319-7.19
			c0.575-2.566,1.258-5.07,2.047-7.514c0.789-2.439,1.696-4.692,2.72-6.759c1.022-2.064,2.145-3.706,3.366-4.928
			c0.861-0.862,1.805-1.552,2.827-2.073c1.022-0.52,2.163-0.763,3.42-0.726c1.866,0,3.507,0.501,4.926,1.507
			c1.419,1.006,2.622,2.279,3.609,3.825c0.986,1.542,1.787,3.212,2.397,5.007c0.61,1.797,1.06,3.484,1.346,5.062
			c0.216,1.043,0.422,2.235,0.619,3.584c0.197,1.345,0.385,2.754,0.565,4.227c0.179,1.473,0.342,2.925,0.485,4.361
			c0.143,1.438,0.278,2.783,0.405,4.041c0.124,1.256,0.214,2.343,0.268,3.259C212.407,86.765,212.434,87.421,212.434,87.817z
			 M191.862,75.968c1.506-0.179,3.023-0.313,4.549-0.406c1.527-0.087,3.098-0.188,4.713-0.295c-0.106-0.754-0.224-1.578-0.349-2.476
			c-0.127-0.898-0.28-1.824-0.459-2.774c-0.18-0.952-0.404-1.894-0.673-2.828c-0.27-0.933-0.584-1.813-0.943-2.639
			c-0.502-1.041-0.987-1.516-1.454-1.428c-0.466,0.091-0.933,0.53-1.399,1.321c-0.898,1.65-1.625,3.427-2.181,5.332
			C193.109,71.678,192.507,73.742,191.862,75.968z"/>
		<path fill="#3088BD" d="M239.63,59.541c0.647,0,1.275,0.108,1.886,0.325c0.61,0.215,1.139,0.53,1.589,0.942
			c0.449,0.412,0.771,0.908,0.969,1.482c0.197,0.574,0.224,1.22,0.082,1.937c-0.54,3.16-1.267,6.354-2.182,9.587
			c-0.916,3.23-2.029,6.418-3.339,9.559c-1.311,3.143-2.854,6.193-4.631,9.156c-1.778,2.962-3.799,5.753-6.061,8.374
			c-1.005,1.15-1.965,1.75-2.882,1.805c-0.914,0.053-2.056-0.495-3.419-1.644c-0.897-0.826-1.588-1.777-2.073-2.853
			c-0.485-1.079-0.476-2.12,0.027-3.125c0.789-1.508,1.686-2.918,2.692-4.228c1.005-1.31,1.958-2.719,2.854-4.227
			c-1.615-1.293-3.069-2.856-4.362-4.686c-1.293-1.832-2.406-3.789-3.34-5.87c-0.933-2.082-1.696-4.218-2.287-6.41
			c-0.593-2.188-1.016-4.309-1.267-6.355c-0.108-1.003,0.207-1.911,0.943-2.72c0.735-0.806,1.606-1.388,2.61-1.748
			c1.005-0.36,1.986-0.423,2.936-0.188c0.951,0.232,1.589,0.887,1.912,1.966c0.43,1.507,0.898,3.061,1.4,4.656
			c0.502,1.6,1.077,3.133,1.723,4.606c0.646,1.473,1.365,2.836,2.154,4.092c0.789,1.258,1.705,2.299,2.747,3.125
			c1.042-2.19,1.975-4.416,2.801-6.679c0.825-2.262,1.543-4.613,2.154-7.054c0.216-1.041,0.665-1.949,1.347-2.72
			C237.297,59.875,238.301,59.506,239.63,59.541z"/>
		<path fill="#3088BD" d="M270.058,61.803c0.432-1.111,1.167-1.83,2.209-2.154c1.041-0.323,2.082-0.357,3.123-0.108
			c1.041,0.253,1.92,0.719,2.639,1.4c0.718,0.684,0.97,1.473,0.754,2.369c-0.395,2.085-0.708,4.175-0.941,6.277
			c-0.236,2.099-0.423,4.279-0.566,6.543c-0.073,1.615-0.108,3.196-0.108,4.738c0,1.545,0.035,2.945,0.108,4.201
			c0.108,1.221,0.16,2.093,0.16,2.612c0,0.521,0.019,0.818,0.055,0.89c0.144,0.502,0.018,0.969-0.377,1.4
			c-0.396,0.43-0.924,0.798-1.589,1.102c-0.663,0.308-1.408,0.54-2.234,0.702c-0.826,0.161-1.625,0.197-2.397,0.106
			c-0.772-0.089-1.454-0.295-2.046-0.62c-0.593-0.321-0.996-0.807-1.212-1.453c-0.035-0.107-0.073-0.224-0.108-0.351
			c-0.036-0.125-0.073-0.278-0.108-0.458c-1.652,1.043-3.24,1.752-4.765,2.128c-1.527,0.377-2.99,0.476-4.391,0.296
			c-2.082-0.25-3.842-0.878-5.277-1.885c-1.437-1.006-2.603-2.27-3.501-3.797c-0.898-1.526-1.543-3.222-1.938-5.089
			c-0.396-1.867-0.611-3.787-0.647-5.764c-0.035-1.974,0.099-3.923,0.406-5.842c0.304-1.919,0.726-3.69,1.264-5.305
			c0.179-0.609,0.395-1.166,0.647-1.67c0.25-0.502,0.519-0.951,0.807-1.346c0.432-0.611,0.97-1.078,1.615-1.4
			c0.647-0.324,1.454-0.358,2.424-0.107c1.365,0.36,2.335,0.853,2.908,1.481c0.574,0.626,0.951,1.247,1.131,1.856
			c0.108,0.612,0.108,1.206,0,1.777c-0.108,0.577-0.25,1.186-0.432,1.832c-0.179,0.646-0.377,1.375-0.591,2.181
			c-0.216,0.809-0.396,1.768-0.54,2.882c-0.537,4.058-0.439,7.039,0.298,8.941c0.734,1.902,1.929,2.817,3.579,2.746
			c0.863-0.035,1.624-0.332,2.289-0.887c0.665-0.557,1.258-1.275,1.779-2.155c0.52-0.881,0.978-1.887,1.374-3.017
			c0.395-1.131,0.754-2.305,1.077-3.526c0.466-1.867,0.896-3.771,1.292-5.709C268.622,65.682,269.232,63.743,270.058,61.803z"/>
		<path fill="#3088BD" d="M312.013,88.247c0.108,0.324,0.073,0.629-0.107,0.916c-0.18,0.287-0.467,0.565-0.861,0.835
			c-0.395,0.269-0.861,0.501-1.399,0.699c-0.54,0.199-1.097,0.351-1.67,0.458c-1.114,0.217-2.201,0.226-3.259,0.028
			c-1.06-0.197-1.858-0.693-2.396-1.481c-2.262,1.147-4.605,1.56-7.027,1.238c-2.424-0.325-4.641-1.177-6.653-2.558
			c-2.01-1.382-3.652-3.186-4.927-5.413c-1.275-2.227-1.877-4.685-1.805-7.377c0.072-2.442,0.673-4.732,1.805-6.868
			c1.131-2.135,2.612-3.94,4.443-5.414c1.831-1.47,3.904-2.502,6.221-3.096c2.315-0.592,4.712-0.565,7.189,0.081
			c0.072-0.43,0.142-0.978,0.215-1.642c0.073-0.664,0.151-1.347,0.243-2.047c0.089-0.701,0.206-1.374,0.35-2.021
			c0.143-0.646,0.324-1.202,0.54-1.67c0.213-0.501,0.607-0.968,1.184-1.399c0.574-0.429,1.454-0.592,2.639-0.485
			c1.363,0.073,2.369,0.333,3.016,0.78c0.647,0.451,1.095,0.907,1.348,1.375c0.106,0.252,0.179,0.484,0.214,0.701
			c0.036,0.215,0.054,0.412,0.054,0.592v0.54c-0.215,1.614-0.368,3.392-0.456,5.331c-0.091,1.94-0.154,3.923-0.189,5.95
			c-0.035,2.029-0.026,4.085,0.026,6.167c0.055,2.084,0.136,4.084,0.242,6.005c0.109,1.92,0.251,3.715,0.432,5.384
			C311.6,85.526,311.798,86.991,312.013,88.247z M292.033,75.806c0,1.221,0.271,2.208,0.808,2.962
			c0.54,0.754,1.229,1.247,2.073,1.481c0.844,0.232,1.76,0.188,2.747-0.136c0.987-0.321,1.948-0.968,2.882-1.939
			c-0.036-1.364-0.047-2.728-0.027-4.092c0.018-1.365,0.081-2.835,0.188-4.417c-1.077-0.43-2.125-0.583-3.15-0.456
			c-1.022,0.124-1.929,0.466-2.718,1.021c-0.792,0.56-1.447,1.313-1.966,2.264C292.347,73.445,292.068,74.551,292.033,75.806z"/>
		<path fill="#3088BD" d="M344.973,65.844c-0.396,3.05-0.735,6.219-1.023,9.503c-0.287,3.285-0.25,6.544,0.109,9.777
			c0.07,1.076,0.161,1.937,0.27,2.583c0.107,0.646,0.177,1.006,0.214,1.078c0.107,0.18,0.063,0.377-0.135,0.592
			c-0.196,0.217-0.494,0.414-0.889,0.594c-0.396,0.18-0.86,0.36-1.4,0.537c-0.538,0.182-1.096,0.325-1.669,0.433
			c-1.258,0.214-2.451,0.26-3.581,0.133c-1.131-0.124-1.895-0.565-2.289-1.319c-0.073-0.108-0.125-0.215-0.161-0.323
			c-0.036-0.106-0.091-0.251-0.162-0.432c-1.472,0.971-3.069,1.563-4.792,1.778c-1.725,0.217-3.412,0.107-5.063-0.323
			c-1.651-0.432-3.188-1.176-4.604-2.235c-1.419-1.058-2.559-2.414-3.42-4.066c-1.005-1.975-1.454-4.109-1.348-6.408
			c0.109-2.298,0.647-4.532,1.615-6.705c0.971-2.172,2.317-4.155,4.041-5.952c1.723-1.795,3.716-3.177,5.979-4.146
			c0.968-0.395,2.18-0.736,3.634-1.023c1.456-0.287,2.916-0.395,4.391-0.321c1.471,0.072,2.853,0.367,4.146,0.887
			c1.293,0.521,2.244,1.373,2.854,2.559c0.935,0.18,1.634,0.429,2.101,0.754c0.467,0.321,0.789,0.626,0.97,0.913
			C344.937,65.07,345.009,65.447,344.973,65.844z M335.172,68.265c-1.078,0-2.138,0.145-3.177,0.431
			c-1.042,0.288-2.013,0.72-2.908,1.294c-0.899,0.573-1.681,1.31-2.345,2.206c-0.664,0.899-1.156,1.94-1.48,3.125
			c-0.323,1.294-0.277,2.398,0.135,3.311c0.412,0.917,1.031,1.49,1.857,1.726c0.826,0.234,1.769,0.052,2.829-0.54
			c1.058-0.592,2.073-1.75,3.042-3.474c0.61-1.148,1.05-2.388,1.32-3.717c0.268-1.328,0.564-2.763,0.887-4.308
			C335.261,68.32,335.207,68.303,335.172,68.265z"/>
		<path fill="#3088BD" d="M355.906,60.402c1.65-0.287,3.285-0.385,4.9-0.295c1.616,0.089,3.25,0.495,4.901,1.212
			c2.55,1.043,4.578,2.47,6.085,4.281c1.509,1.813,2.522,3.761,3.045,5.843c0.52,2.084,0.555,4.211,0.107,6.383
			c-0.45,2.172-1.347,4.146-2.694,5.924c-1.346,1.776-3.141,3.268-5.384,4.47c-2.246,1.203-4.894,1.876-7.945,2.019
			c0.071,2.479,0.127,4.552,0.163,6.222c0.034,1.669,0.071,2.575,0.106,2.719c0.072,0.466-0.1,0.878-0.512,1.238
			c-0.413,0.36-0.96,0.655-1.643,0.889c-0.682,0.233-1.446,0.369-2.288,0.403c-0.844,0.036-1.643-0.026-2.396-0.188
			c-0.755-0.162-1.428-0.458-2.021-0.888c-0.592-0.432-0.979-1.006-1.157-1.724c-0.181-0.718-0.323-1.975-0.432-3.769
			c-0.106-1.797-0.197-3.86-0.269-6.193s-0.117-4.801-0.135-7.407c-0.019-2.601-0.027-5.07-0.027-7.404
			c0-2.335,0.009-4.399,0.027-6.193c0.018-1.795,0.026-3.051,0.026-3.769c0-0.145,0-0.423,0-0.835s0.09-0.862,0.271-1.348
			c0.179-0.484,0.511-0.942,0.996-1.371c0.484-0.433,1.212-0.737,2.181-0.917c1.041-0.18,1.876-0.188,2.505-0.026
			C354.946,59.837,355.475,60.081,355.906,60.402z M358.491,81.03c1.257,0,2.361-0.25,3.313-0.754
			c0.952-0.501,1.678-1.13,2.182-1.885c0.502-0.754,0.789-1.571,0.86-2.45c0.072-0.881-0.125-1.698-0.592-2.452
			c-0.468-0.753-1.23-1.38-2.289-1.885c-1.061-0.501-2.433-0.771-4.119-0.806c0.107,1.65,0.223,3.312,0.35,4.981
			C358.321,77.45,358.42,79.198,358.491,81.03z M386.928,60.295c2.728-0.501,5.151-0.421,7.271,0.243
			c2.119,0.664,3.922,1.688,5.412,3.07c1.489,1.383,2.657,3.051,3.501,5.007s1.337,3.978,1.48,6.059
			c0.145,2.082-0.071,4.146-0.646,6.193c-0.575,2.047-1.519,3.861-2.827,5.439c-1.312,1.583-3.017,2.847-5.117,3.798
			c-2.1,0.95-4.604,1.373-7.513,1.267c0.072,1.255,0.098,2.548,0.081,3.875c-0.019,1.329-0.063,2.639-0.136,3.932
			c-0.071,0.826-0.295,1.535-0.672,2.127c-0.377,0.592-1.194,0.995-2.449,1.212c-0.684,0.108-1.411,0.134-2.183,0.082
			c-0.772-0.056-1.491-0.217-2.153-0.487c-0.666-0.267-1.24-0.644-1.725-1.13c-0.483-0.484-0.8-1.084-0.941-1.804
			c-0.182-0.826-0.279-1.974-0.298-3.446c-0.018-1.473-0.009-3.178,0.027-5.118c0.144-4.81,0.216-9.594,0.216-14.351
			c0-4.758-0.036-9.613-0.108-14.568c0-0.143-0.01-0.449-0.026-0.917c-0.018-0.464,0.054-0.959,0.216-1.479
			c0.161-0.521,0.475-1.015,0.942-1.481c0.466-0.466,1.202-0.809,2.208-1.023c1.329-0.287,2.352-0.27,3.068,0.052
			c0.72,0.325,1.258,0.737,1.617,1.24c0.179,0.251,0.313,0.502,0.403,0.754c0.09,0.25,0.17,0.484,0.242,0.699
			c0.072,0.253,0.108,0.485,0.108,0.702V60.295z M388.381,80.816c1.51,0,2.757-0.316,3.743-0.943
			c0.987-0.629,1.715-1.391,2.182-2.29c0.466-0.896,0.673-1.858,0.618-2.882c-0.052-1.023-0.349-1.965-0.887-2.826
			c-0.538-0.861-1.329-1.543-2.369-2.047c-1.042-0.503-2.335-0.699-3.879-0.592c0.107,1.759,0.216,3.555,0.323,5.385
			C388.221,76.453,388.309,78.517,388.381,80.816z"/>
	</g>
</g>
</svg>
